Chapitre 2 Gain moyen quotidien | Exploration des données, nutrition de cailles
…
Ce sont les paires de régimes dont les effets sur le GMQ sont significativement différents.

Si on devait afficher toutes les comparaisons, voici ce que ça donne :

dg %>% 
  dunn_test(gmq ~ regime, p.adjust.method = "bonferroni") %>% 
  select(group1, group2, p, p.adj, p.adj.signif)

## # A tibble: 45 x 5
##    group1  group2         p  p.adj p.adj.signif
##    <chr>   <chr>      <dbl>  <dbl> <chr>       
##  1 BA 0.25 BA 0.5  0.893    1      ns          
##  2 BA 0.25 BA 0.75 0.244    1      ns          
##  3 BA 0.25 BA 1    0.859    1      ns          
##  4 BA 0.25 BA 10   0.0884   1      ns          
##  5 BA 0.25 BA 2.5  0.957    1      ns          
##  6 BA 0.25 BA 5    0.000239 0.0107 *           
##  7 BA 0.25 BA 7.5  0.272    1      ns          
##  8 BA 0.25 WC      0.00641  0.289  ns          
##  9 BA 0.25 YC      0.00209  0.0942 ns          
## 10 BA 0.5  BA 0.75 0.303    1      ns          
## # ... with 35 more rows
…
