Chapitre 3 Matières grasses | Exploration des données, nutrition de cailles
…
Les valeurs pour chaque séances sont renommés en tmg pour taux de matière grasse.

3.3 Sommaire des données, par séance

mgl %>%
  group_by(seance, regime) %>%
  get_summary_stats(tmg, type = "mean_sd") %>% 
  select(-variable)

## # A tibble: 40 x 5
##    regime  seance     n  mean    sd
##    <fct>   <fct>  <dbl> <dbl> <dbl>
##  1 Ba 0,25 mg1        3  59.1  8.33
##  2 Ba 0,5  mg1        3  65.9  7.51
##  3 Ba 0,75 mg1        2  57.3 15.1 
##  4 Ba 1    mg1        3  64.5  6.99
##  5 Ba 10   mg1        1  69.8 NA   
##  6 Ba 2,5  mg1        3  63.9  5.66
##  7 Ba 5    mg1        3  78.6  3.61
##  8 Ba 7,5  mg1        3  60.5  5.14
##  9 WC      mg1        3  65.6  1.93
## 10 YC      mg1        3  63.5 10.1 
## # ... with 30 more rows
…
